<svg xmlns="http://www.w3.org/2000/svg" width="680" height="460">
  <path fill="#fff" d="M80 60h600v400H80z" />
  <path fill="none" stroke="#aaa" stroke-width="2" d="M100 60v400m20-400v400m20-400v400m20-400v400m40-400v400m20-400v400m20-400v400m20-400v400m40-400v400m20-400v400m20-400v400m20-400v400m40-400v400m20-400v400m20-400v400m20-400v400m40-400v400m20-400v400m20-400v400m20-400v400m40-400v400m20-400v400m20-400v400m20-400v400M80 80h600M80 100h600M80 120h600M80 140h600M80 180h600M80 200h600M80 220h600M80 240h600M80 280h600M80 300h600M80 320h600M80 340h600M80 380h600M80 400h600M80 420h600M80 440h600" stroke-linecap="square" />
  <path fill="none" stroke="#555" stroke-width="2" d="M80 60v400M180 60v400M280 60v400M380 60v400M480 60v400M580 60v400m-500 0h600m0-400v400M80 160h600M80 260h600M80 360h600M80 60h600" stroke-linecap="square" />
  <g style="font-size:16px;font-family:sans-serif;text-align:center;text-anchor:middle">
    <text x="10" y="76">8</text>
    <text x="30" y="76">7</text>
    <text x="50" y="76">5</text>
    <text x="70" y="76">7</text>
    <text x="10" y="96">5</text>
    <text x="30" y="96">4</text>
    <text x="50" y="96">3</text>
    <text x="70" y="96">3</text>
    <text x="10" y="116">3</text>
    <text x="30" y="116">3</text>
    <text x="50" y="116">2</text>
    <text x="70" y="116">3</text>
    <text x="10" y="136">4</text>
    <text x="30" y="136">3</text>
    <text x="50" y="136">2</text>
    <text x="70" y="136">2</text>
    <text x="10" y="156">3</text>
    <text x="30" y="156">3</text>
    <text x="50" y="156">2</text>
    <text x="70" y="156">2</text>
    <text x="10" y="176">3</text>
    <text x="30" y="176">4</text>
    <text x="50" y="176">2</text>
    <text x="70" y="176">2</text>
    <text x="30" y="196">4</text>
    <text x="50" y="196">5</text>
    <text x="70" y="196">2</text>
    <text x="30" y="216">3</text>
    <text x="50" y="216">5</text>
    <text x="70" y="216">1</text>
    <text x="30" y="236">4</text>
    <text x="50" y="236">3</text>
    <text x="70" y="236">2</text>
    <text x="30" y="256">3</text>
    <text x="50" y="256">4</text>
    <text x="70" y="256">2</text>
    <text x="30" y="276">4</text>
    <text x="50" y="276">4</text>
    <text x="70" y="276">2</text>
    <text x="30" y="296">3</text>
    <text x="50" y="296">6</text>
    <text x="70" y="296">2</text>
    <text x="10" y="316">3</text>
    <text x="30" y="316">2</text>
    <text x="50" y="316">3</text>
    <text x="70" y="316">1</text>
    <text x="10" y="336">4</text>
    <text x="30" y="336">3</text>
    <text x="50" y="336">4</text>
    <text x="70" y="336">2</text>
    <text x="10" y="356">3</text>
    <text x="30" y="356">2</text>
    <text x="50" y="356">3</text>
    <text x="70" y="356">2</text>
    <text x="50" y="376">6</text>
    <text x="70" y="376">5</text>
    <text x="50" y="396">4</text>
    <text x="70" y="396">5</text>
    <text x="50" y="416">3</text>
    <text x="70" y="416">3</text>
    <text x="50" y="436">3</text>
    <text x="70" y="436">3</text>
    <text x="50" y="456">1</text>
    <text x="70" y="456">1</text>
    <text x="90" y="56">1</text>
    <text x="110" y="56">1</text>
    <text x="130" y="56">2</text>
    <text x="150" y="56">4</text>
    <text x="170" y="56">7</text>
    <text x="190" y="56">9</text>
    <text x="210" y="36">2</text>
    <text x="210" y="56">8</text>
    <text x="230" y="36">1</text>
    <text x="230" y="56">8</text>
    <text x="250" y="56">8</text>
    <text x="270" y="36">1</text>
    <text x="270" y="56">9</text>
    <text x="290" y="36">2</text>
    <text x="290" y="56">7</text>
    <text x="310" y="36">3</text>
    <text x="310" y="56">4</text>
    <text x="330" y="36">6</text>
    <text x="330" y="56">4</text>
    <text x="350" y="36">8</text>
    <text x="350" y="56">5</text>
    <text x="370" y="36">1</text>
    <text x="370" y="56">11</text>
    <text x="390" y="36">1</text>
    <text x="390" y="56">7</text>
    <text x="410" y="56">8</text>
    <text x="430" y="16">1</text>
    <text x="430" y="36">4</text>
    <text x="430" y="56">8</text>
    <text x="450" y="36">6</text>
    <text x="450" y="56">8</text>
    <text x="470" y="36">4</text>
    <text x="470" y="56">7</text>
    <text x="490" y="36">2</text>
    <text x="490" y="56">4</text>
    <text x="510" y="36">1</text>
    <text x="510" y="56">4</text>
    <text x="530" y="56">5</text>
    <text x="550" y="36">1</text>
    <text x="550" y="56">4</text>
    <text x="570" y="36">1</text>
    <text x="570" y="56">5</text>
    <text x="590" y="56">7</text>
    <text x="610" y="56">5</text>
    <text x="630" y="56">3</text>
    <text x="650" y="56">1</text>
    <text x="670" y="56">1</text>
  </g>
  <path d="M80 60h160v20h-20v20h-20v20h20v60h20v40h20v40h20v60h20v40h20v-40h20v-40h20v-60h-20v-40h-20v-60h-20v-20h-20V80h-20V60h140v20h-40v40h20v40h20v20h20v-40h20V80h-20V60h100v20h-20v20h-20v40h-20v40h-20v40h-20v20h20v40h20v40h20v40h20v-40h20v-60h20v-40h20v-60h20V80h-40V60h140v20h-40v40h-20v40h-20v40h-20v60h-20v40h-20v60h-20v40h-20v40h-20v20h-20v-20h-20v-40h-20v-60h-20v-40h-20v40h-20v40h-20v20h-20v40h-20v20h-20v-20h-20v-60h-20v-40h-20v-60h-20v-40h-20v-40h-20v-60h-20v-40h-20V80H80z" />
</svg>
